{
    "UserDataArray": [
        {
            "UserName": "kji",
            "UserScore": 546.0
        },
        {
            "UserName": "uyy",
            "UserScore": 45.0
        },
        {
            "UserName": "fggnn",
            "UserScore": 30.0
        },
        {
            "UserName": "",
            "UserScore": 29.0
        },
        {
            "UserName": "qqqqt",
            "UserScore": 21.0
        },
        {
            "UserName": " ",
            "UserScore": 20.0
        },
        {
            "UserName": "utreer ",
            "UserScore": 19.506986618041993
        },
        {
            "UserName": "utreer ",
            "UserScore": 19.506986618041993
        },
        {
            "UserName": "fggn   ",
            "UserScore": 19.0
        },
        {
            "UserName": "uyyyyt",
            "UserScore": 18.995323181152345
        }
    ]
}
